{
  "info": {
    "_postman_id": "65cb0172-2367-4cad-b168-cd54b196cbd8",
    "name": "User-Api-Collection",
    "schema": "https://schema.getpostman.com/json/collection/v2.1.0/collection.json",
    "_exporter_id": "13026238"
  },
  "item": [
    {
      "name": "create user succes",
      "request": {
        "method": "POST",
        "header": [],
        "body": {
          "mode": "raw",
          "raw": "{\r\n    \"username\":\"salim\",\r\n    \"birthdate\":\"1991-04-02\",\r\n    \"codeCountry\":\"FR\",\r\n    \"phoneNumber\":\"+33123456789\",\r\n    \"gender\":\"MALE\"\r\n}",
          "options": {
            "raw": {
              "language": "json"
            }
          }
        },
        "url": {
          "raw": "http://localhost:8080/users",
          "protocol": "http",
          "host": [
            "localhost"
          ],
          "port": "8080",
          "path": [
            "users"
          ]
        }
      },
      "response": []
    },
    {
      "name": "create user without username and not adult-French  is failed",
      "request": {
        "method": "POST",
        "header": [],
        "body": {
          "mode": "raw",
          "raw": "{\r\n    \"birthdate\":\"2010-04-02\",\r\n    \"codeCountry\":\"EN\",\r\n    \"phoneNumber\":\"+33123456789\",\r\n    \"gender\":\"MALE\"\r\n}",
          "options": {
            "raw": {
              "language": "json"
            }
          }
        },
        "url": {
          "raw": "http://localhost:8080/users",
          "protocol": "http",
          "host": [
            "localhost"
          ],
          "port": "8080",
          "path": [
            "users"
          ]
        }
      },
      "response": []
    },
    {
      "name": "getUser",
      "request": {
        "method": "GET",
        "header": [],
        "url": {
          "raw": "http://localhost:8080/users/10",
          "protocol": "http",
          "host": [
            "localhost"
          ],
          "port": "8080",
          "path": [
            "users",
            "10"
          ]
        }
      },
      "response": []
    }
  ]
}